Replication: In search of homo economicus – Michael Schulte-Mecklenbeck
…
# generate data frame for choices
Lee_Choice_Coded <- 
Lee_Choice %>%
  left_join(Lee_Items) %>%
  mutate(combi1 = str_extract(combi1, pattern = "(\\d)+"),
         combi2 = str_extract(combi2, pattern = "(\\d)+"),
         combination = paste0(combi1, combi2))

# subset relevant variables data frame 
Lee_Choice_Select <- 
   Lee_Choice_Coded %>%
   select(Experiment, condition, ID, combination, coded_choice)
Lee_Choice_Select

# A tibble: 6,750 × 5
   Experiment condition ID       combination coded_choice
   <chr>      <chr>     <chr>    <chr>              <int>
 1 Lee2       pictures  8Y3uw8Wz 12                     2
 2 Lee2       pictures  8Y3uw8Wz 13                     3
 3 Lee2       pictures  8Y3uw8Wz 14                     4
 4 Lee2       pictures  8Y3uw8Wz 15                     5
 5 Lee2       pictures  8Y3uw8Wz 16                     1
 6 Lee2       pictures  8Y3uw8Wz 17                     7
 7 Lee2       pictures  8Y3uw8Wz 18                     8
 8 Lee2       pictures  8Y3uw8Wz 19                     1
 9 Lee2       pictures  8Y3uw8Wz 110                    1
10 Lee2       pictures  8Y3uw8Wz 23                     3
# ℹ 6,740 more rows
…
We transfer the matrix into a tibble and paste together all combinations of products - so there are three pairs that identify the three combinations of products. The new variable defines all transitive choices for all possible permutations of choice pairs.

# generate space with all possible choice combinations
space <- 
as_tibble(comb) %>%
  mutate(pair1 = paste0(V1,V2),
         pair2 = paste0(V2,V3),
         pair3 = paste0(V1,V3),
         transitive = paste0(V1,V2,V1)) %>%
  select(-starts_with('V'))
space

# A tibble: 720 × 4
   pair1 pair2 pair3 transitive
   <chr> <chr> <chr> <chr>     
 1 12    23    13    121       
 2 12    24    14    121       
 3 12    25    15    121       
 4 12    26    16    121       
 5 12    27    17    121       
 6 12    28    18    121       
 7 12    29    19    121       
 8 12    210   110   121       
 9 13    32    12    131       
10 13    34    14    131       
# ℹ 710 more rows

Now for some joining. We want to join the actual choices of each participant back into the matrix we generated above, with all the permutations of my 10 items. This is a little step by step operation, cause we want to join based on three different variables (pairs 1, 2 and 3). The first join is straight forward, for every row in pair 1 match the choice (and all other information about participants, experiment etc) from Lee_Choice_Coded, then rename the coded_choice variable and go on and match on pair2 now - note that we add ID and condition (although ID should be enough?), rename again and then match based on pair3.

# A tibble: 54,360 × 10
   pair1 pair2 pair3 transitive Experiment condition ID       coded_choice1
   <chr> <chr> <chr> <chr>      <chr>      <chr>     <chr>            <int>
 1 12    23    13    121        Lee2       pictures  8Y3uw8Wz             2
 2 12    23    13    121        Lee4       B&W       D9JSme3C             2
 3 12    23    13    121        Lee4       B&W       3iTJmoTV             2
 4 12    23    13    121        Lee2       pictures  47Z1QWBC             2
 5 12    23    13    121        Lee3       color     KLMDkXi9             2
 6 12    23    13    121        L1a        names     ZVQFirwo             2
 7 12    23    13    121        Lee4       B&W       u0L1YrCo             2
 8 12    23    13    121        Lee2       pictures  nOffEONb             2
 9 12    23    13    121        Lee3       color     Hstldczk             2
10 12    23    13    121        L1a        names     zEAhW9Wh             2
# ℹ 54,350 more rows
# ℹ 2 more variables: coded_choice2 <int>, coded_choice3 <int>

So, that looks about right - what is left to do is to paste together the actual choices and then test these choice triples coded_choice_triple against the transitive variable we generated above - which gives us a logical vector called test.

# A tibble: 54,360 × 6
   transitive Experiment condition ID       choice_triple test 
   <chr>      <chr>      <chr>     <chr>    <chr>         <lgl>
 1 121        Lee2       pictures  8Y3uw8Wz 233           FALSE
 2 121        Lee4       B&W       D9JSme3C 223           FALSE
 3 121        Lee4       B&W       3iTJmoTV 223           FALSE
 4 121        Lee2       pictures  47Z1QWBC 223           FALSE
 5 121        Lee3       color     KLMDkXi9 233           FALSE
 6 121        L1a        names     ZVQFirwo 223           FALSE
 7 121        Lee4       B&W       u0L1YrCo 223           FALSE
 8 121        Lee2       pictures  nOffEONb 221           FALSE
 9 121        Lee3       color     Hstldczk 223           FALSE
10 121        L1a        names     zEAhW9Wh 233           FALSE
# ℹ 54,350 more rows
…
